%YAML 1.1
%TAG !u! tag:unity3d.com,2011:
--- !u!29 &1
OcclusionCullingSettings:
  m_ObjectHideFlags: 0
  serializedVersion: 2
  m_OcclusionBakeSettings:
    smallestOccluder: 5
    smallestHole: 0.25
    backfaceThreshold: 100
  m_SceneGUID: 00000000000000000000000000000000
  m_OcclusionCullingData: {fileID: 0}
--- !u!104 &2
RenderSettings:
  m_ObjectHideFlags: 0
  serializedVersion: 9
  m_Fog: 0
  m_FogColor: {r: 0.5, g: 0.5, b: 0.5, a: 1}
  m_FogMode: 3
  m_FogDensity: 0.01
  m_LinearFogStart: 0
  m_LinearFogEnd: 300
  m_AmbientSkyColor: {r: 0.212, g: 0.227, b: 0.259, a: 1}
  m_AmbientEquatorColor: {r: 0.114, g: 0.125, b: 0.133, a: 1}
  m_AmbientGroundColor: {r: 0.047, g: 0.043, b: 0.035, a: 1}
  m_AmbientIntensity: 1
  m_AmbientMode: 3
  m_SubtractiveShadowColor: {r: 0.42, g: 0.478, b: 0.627, a: 1}
  m_SkyboxMaterial: {fileID: 0}
  m_HaloStrength: 0.5
  m_FlareStrength: 1
  m_FlareFadeSpeed: 3
  m_HaloTexture: {fileID: 0}
  m_SpotCookie: {fileID: 10001, guid: 0000000000000000e000000000000000, type: 0}
  m_DefaultReflectionMode: 0
  m_DefaultReflectionResolution: 128
  m_ReflectionBounces: 1
  m_ReflectionIntensity: 1
  m_CustomReflection: {fileID: 0}
  m_Sun: {fileID: 0}
  m_IndirectSpecularColor: {r: 0, g: 0, b: 0, a: 1}
  m_UseRadianceAmbientProbe: 0
--- !u!157 &3
LightmapSettings:
  m_ObjectHideFlags: 0
  serializedVersion: 11
  m_GIWorkflowMode: 1
  m_GISettings:
    serializedVersion: 2
    m_BounceScale: 1
    m_IndirectOutputScale: 1
    m_AlbedoBoost: 1
    m_EnvironmentLightingMode: 0
    m_EnableBakedLightmaps: 0
    m_EnableRealtimeLightmaps: 0
  m_LightmapEditorSettings:
    serializedVersion: 12
    m_Resolution: 2
    m_BakeResolution: 40
    m_AtlasSize: 1024
    m_AO: 0
    m_AOMaxDistance: 1
    m_CompAOExponent: 1
    m_CompAOExponentDirect: 0
    m_ExtractAmbientOcclusion: 0
    m_Padding: 2
    m_LightmapParameters: {fileID: 0}
    m_LightmapsBakeMode: 1
    m_TextureCompression: 1
    m_FinalGather: 0
    m_FinalGatherFiltering: 1
    m_FinalGatherRayCount: 256
    m_ReflectionCompression: 2
    m_MixedBakeMode: 2
    m_BakeBackend: 0
    m_PVRSampling: 1
    m_PVRDirectSampleCount: 32
    m_PVRSampleCount: 500
    m_PVRBounces: 2
    m_PVREnvironmentSampleCount: 500
    m_PVREnvironmentReferencePointCount: 2048
    m_PVRFilteringMode: 2
    m_PVRDenoiserTypeDirect: 0
    m_PVRDenoiserTypeIndirect: 0
    m_PVRDenoiserTypeAO: 0
    m_PVRFilterTypeDirect: 0
    m_PVRFilterTypeIndirect: 0
    m_PVRFilterTypeAO: 0
    m_PVREnvironmentMIS: 0
    m_PVRCulling: 1
    m_PVRFilteringGaussRadiusDirect: 1
    m_PVRFilteringGaussRadiusIndirect: 5
    m_PVRFilteringGaussRadiusAO: 2
    m_PVRFilteringAtrousPositionSigmaDirect: 0.5
    m_PVRFilteringAtrousPositionSigmaIndirect: 2
    m_PVRFilteringAtrousPositionSigmaAO: 1
    m_ExportTrainingData: 0
    m_TrainingDataDestination: TrainingData
    m_LightProbeSampleCountMultiplier: 4
  m_LightingDataAsset: {fileID: 0}
  m_UseShadowmask: 1
--- !u!196 &4
NavMeshSettings:
  serializedVersion: 2
  m_ObjectHideFlags: 0
  m_BuildSettings:
    serializedVersion: 2
    agentTypeID: 0
    agentRadius: 0.5
    agentHeight: 2
    agentSlope: 45
    agentClimb: 0.4
    ledgeDropHeight: 0
    maxJumpAcrossDistance: 0
    minRegionArea: 2
    manualCellSize: 0
    cellSize: 0.16666667
    manualTileSize: 0
    tileSize: 256
    accuratePlacement: 0
    debug:
      m_Flags: 0
  m_NavMeshData: {fileID: 0}
--- !u!1001 &286731625
PrefabInstance:
  m_ObjectHideFlags: 0
  serializedVersion: 2
  m_Modification:
    m_TransformParent: {fileID: 0}
    m_Modifications:
    - target: {fileID: 3694969109961459907, guid: 89962f56bbf47ab469748ee6b21a3963,
        type: 3}
      propertyPath: m_RootOrder
      value: 4
      objectReference: {fileID: 0}
    - target: {fileID: 3694969109961459907, guid: 89962f56bbf47ab469748ee6b21a3963,
        type: 3}
      propertyPath: m_LocalPosition.x
      value: 1.8858232
      objectReference: {fileID: 0}
    - target: {fileID: 3694969109961459907, guid: 89962f56bbf47ab469748ee6b21a3963,
        type: 3}
      propertyPath: m_LocalPosition.y
      value: -0.49787608
      objectReference: {fileID: 0}
    - target: {fileID: 3694969109961459907, guid: 89962f56bbf47ab469748ee6b21a3963,
        type: 3}
      propertyPath: m_LocalPosition.z
      value: -1.0721096
      objectReference: {fileID: 0}
    - target: {fileID: 3694969109961459907, guid: 89962f56bbf47ab469748ee6b21a3963,
        type: 3}
      propertyPath: m_LocalRotation.w
      value: 1
      objectReference: {fileID: 0}
    - target: {fileID: 3694969109961459907, guid: 89962f56bbf47ab469748ee6b21a3963,
        type: 3}
      propertyPath: m_LocalRotation.x
      value: 0
      objectReference: {fileID: 0}
    - target: {fileID: 3694969109961459907, guid: 89962f56bbf47ab469748ee6b21a3963,
        type: 3}
      propertyPath: m_LocalRotation.y
      value: 0
      objectReference: {fileID: 0}
    - target: {fileID: 3694969109961459907, guid: 89962f56bbf47ab469748ee6b21a3963,
        type: 3}
      propertyPath: m_LocalRotation.z
      value: 0
      objectReference: {fileID: 0}
    - target: {fileID: 3694969109961459907, guid: 89962f56bbf47ab469748ee6b21a3963,
        type: 3}
      propertyPath: m_LocalEulerAnglesHint.x
      value: 0
      objectReference: {fileID: 0}
    - target: {fileID: 3694969109961459907, guid: 89962f56bbf47ab469748ee6b21a3963,
        type: 3}
      propertyPath: m_LocalEulerAnglesHint.y
      value: 0
      objectReference: {fileID: 0}
    - target: {fileID: 3694969109961459907, guid: 89962f56bbf47ab469748ee6b21a3963,
        type: 3}
      propertyPath: m_LocalEulerAnglesHint.z
      value: 0
      objectReference: {fileID: 0}
    - target: {fileID: 3694969109961459916, guid: 89962f56bbf47ab469748ee6b21a3963,
        type: 3}
      propertyPath: m_Name
      value: GamePlay Essentials
      objectReference: {fileID: 0}
    - target: {fileID: 5470281899060162522, guid: 89962f56bbf47ab469748ee6b21a3963,
        type: 3}
      propertyPath: m_AnchorMax.y
      value: 0
      objectReference: {fileID: 0}
    - target: {fileID: 5470281899060162522, guid: 89962f56bbf47ab469748ee6b21a3963,
        type: 3}
      propertyPath: m_AnchorMin.y
      value: 0
      objectReference: {fileID: 0}
    - target: {fileID: 5470281899060162522, guid: 89962f56bbf47ab469748ee6b21a3963,
        type: 3}
      propertyPath: m_AnchoredPosition.x
      value: 0
      objectReference: {fileID: 0}
    - target: {fileID: 5470281899060162522, guid: 89962f56bbf47ab469748ee6b21a3963,
        type: 3}
      propertyPath: m_AnchoredPosition.y
      value: 0
      objectReference: {fileID: 0}
    - target: {fileID: 5470281899814412496, guid: 89962f56bbf47ab469748ee6b21a3963,
        type: 3}
      propertyPath: m_LocalPosition.z
      value: 0
      objectReference: {fileID: 0}
    - target: {fileID: 5470281899823918848, guid: 89962f56bbf47ab469748ee6b21a3963,
        type: 3}
      propertyPath: m_AnchorMax.y
      value: 0
      objectReference: {fileID: 0}
    - target: {fileID: 5470281899823918848, guid: 89962f56bbf47ab469748ee6b21a3963,
        type: 3}
      propertyPath: m_AnchorMin.y
      value: 0
      objectReference: {fileID: 0}
    - target: {fileID: 5470281899823918848, guid: 89962f56bbf47ab469748ee6b21a3963,
        type: 3}
      propertyPath: m_AnchoredPosition.x
      value: 0
      objectReference: {fileID: 0}
    - target: {fileID: 5470281899823918848, guid: 89962f56bbf47ab469748ee6b21a3963,
        type: 3}
      propertyPath: m_AnchoredPosition.y
      value: 0
      objectReference: {fileID: 0}
    - target: {fileID: 5470281899953795370, guid: 89962f56bbf47ab469748ee6b21a3963,
        type: 3}
      propertyPath: m_SizeDelta.x
      value: 0
      objectReference: {fileID: 0}
    - target: {fileID: 5470281899953795370, guid: 89962f56bbf47ab469748ee6b21a3963,
        type: 3}
      propertyPath: m_SizeDelta.y
      value: 0
      objectReference: {fileID: 0}
    - target: {fileID: 5470281900037729446, guid: 89962f56bbf47ab469748ee6b21a3963,
        type: 3}
      propertyPath: m_AnchorMax.y
      value: 0
      objectReference: {fileID: 0}
    - target: {fileID: 5470281900037729446, guid: 89962f56bbf47ab469748ee6b21a3963,
        type: 3}
      propertyPath: m_AnchorMin.y
      value: 0
      objectReference: {fileID: 0}
    - target: {fileID: 5470281900037729446, guid: 89962f56bbf47ab469748ee6b21a3963,
        type: 3}
      propertyPath: m_AnchoredPosition.x
      value: 0
      objectReference: {fileID: 0}
    - target: {fileID: 5470281900037729446, guid: 89962f56bbf47ab469748ee6b21a3963,
        type: 3}
      propertyPath: m_AnchoredPosition.y
      value: 0
      objectReference: {fileID: 0}
    m_RemovedComponents: []
  m_SourcePrefab: {fileID: 100100000, guid: 89962f56bbf47ab469748ee6b21a3963, type: 3}
--- !u!1001 &1079618273
PrefabInstance:
  m_ObjectHideFlags: 0
  serializedVersion: 2
  m_Modification:
    m_TransformParent: {fileID: 0}
    m_Modifications:
    - target: {fileID: 6429225687788650633, guid: f971ba15b161b20418eb6f81c661bda5,
        type: 3}
      propertyPath: m_RootOrder
      value: 1
      objectReference: {fileID: 0}
    - target: {fileID: 6429225687788650633, guid: f971ba15b161b20418eb6f81c661bda5,
        type: 3}
      propertyPath: m_LocalPosition.x
      value: -0.49
      objectReference: {fileID: 0}
    - target: {fileID: 6429225687788650633, guid: f971ba15b161b20418eb6f81c661bda5,
        type: 3}
      propertyPath: m_LocalPosition.y
      value: -1.28
      objectReference: {fileID: 0}
    - target: {fileID: 6429225687788650633, guid: f971ba15b161b20418eb6f81c661bda5,
        type: 3}
      propertyPath: m_LocalPosition.z
      value: 0
      objectReference: {fileID: 0}
    - target: {fileID: 6429225687788650633, guid: f971ba15b161b20418eb6f81c661bda5,
        type: 3}
      propertyPath: m_LocalRotation.w
      value: 1
      objectReference: {fileID: 0}
    - target: {fileID: 6429225687788650633, guid: f971ba15b161b20418eb6f81c661bda5,
        type: 3}
      propertyPath: m_LocalRotation.x
      value: 0
      objectReference: {fileID: 0}
    - target: {fileID: 6429225687788650633, guid: f971ba15b161b20418eb6f81c661bda5,
        type: 3}
      propertyPath: m_LocalRotation.y
      value: 0
      objectReference: {fileID: 0}
    - target: {fileID: 6429225687788650633, guid: f971ba15b161b20418eb6f81c661bda5,
        type: 3}
      propertyPath: m_LocalRotation.z
      value: 0
      objectReference: {fileID: 0}
    - target: {fileID: 6429225687788650633, guid: f971ba15b161b20418eb6f81c661bda5,
        type: 3}
      propertyPath: m_LocalEulerAnglesHint.x
      value: 0
      objectReference: {fileID: 0}
    - target: {fileID: 6429225687788650633, guid: f971ba15b161b20418eb6f81c661bda5,
        type: 3}
      propertyPath: m_LocalEulerAnglesHint.y
      value: 0
      objectReference: {fileID: 0}
    - target: {fileID: 6429225687788650633, guid: f971ba15b161b20418eb6f81c661bda5,
        type: 3}
      propertyPath: m_LocalEulerAnglesHint.z
      value: 0
      objectReference: {fileID: 0}
    - target: {fileID: 6429225687788650635, guid: f971ba15b161b20418eb6f81c661bda5,
        type: 3}
      propertyPath: m_Name
      value: Door Up Variant
      objectReference: {fileID: 0}
    - target: {fileID: 7928664180952518732, guid: f971ba15b161b20418eb6f81c661bda5,
        type: 3}
      propertyPath: _room
      value: Room4
      objectReference: {fileID: 0}
    m_RemovedComponents: []
  m_SourcePrefab: {fileID: 100100000, guid: f971ba15b161b20418eb6f81c661bda5, type: 3}
--- !u!1001 &1555315069
PrefabInstance:
  m_ObjectHideFlags: 0
  serializedVersion: 2
  m_Modification:
    m_TransformParent: {fileID: 0}
    m_Modifications:
    - target: {fileID: 5346472814807214293, guid: f12ebb1178d00a94982299201d381938,
        type: 3}
      propertyPath: m_Name
      value: Door Left Variant
      objectReference: {fileID: 0}
    - target: {fileID: 5346472814807214295, guid: f12ebb1178d00a94982299201d381938,
        type: 3}
      propertyPath: m_RootOrder
      value: 2
      objectReference: {fileID: 0}
    - target: {fileID: 5346472814807214295, guid: f12ebb1178d00a94982299201d381938,
        type: 3}
      propertyPath: m_LocalPosition.x
      value: -1.8
      objectReference: {fileID: 0}
    - target: {fileID: 5346472814807214295, guid: f12ebb1178d00a94982299201d381938,
        type: 3}
      propertyPath: m_LocalPosition.y
      value: -0.33
      objectReference: {fileID: 0}
    - target: {fileID: 5346472814807214295, guid: f12ebb1178d00a94982299201d381938,
        type: 3}
      propertyPath: m_LocalPosition.z
      value: 0
      objectReference: {fileID: 0}
    - target: {fileID: 5346472814807214295, guid: f12ebb1178d00a94982299201d381938,
        type: 3}
      propertyPath: m_LocalRotation.w
      value: 1
      objectReference: {fileID: 0}
    - target: {fileID: 5346472814807214295, guid: f12ebb1178d00a94982299201d381938,
        type: 3}
      propertyPath: m_LocalRotation.x
      value: 0
      objectReference: {fileID: 0}
    - target: {fileID: 5346472814807214295, guid: f12ebb1178d00a94982299201d381938,
        type: 3}
      propertyPath: m_LocalRotation.y
      value: 0
      objectReference: {fileID: 0}
    - target: {fileID: 5346472814807214295, guid: f12ebb1178d00a94982299201d381938,
        type: 3}
      propertyPath: m_LocalRotation.z
      value: 0
      objectReference: {fileID: 0}
    - target: {fileID: 5346472814807214295, guid: f12ebb1178d00a94982299201d381938,
        type: 3}
      propertyPath: m_LocalEulerAnglesHint.x
      value: 0
      objectReference: {fileID: 0}
    - target: {fileID: 5346472814807214295, guid: f12ebb1178d00a94982299201d381938,
        type: 3}
      propertyPath: m_LocalEulerAnglesHint.y
      value: 0
      objectReference: {fileID: 0}
    - target: {fileID: 5346472814807214295, guid: f12ebb1178d00a94982299201d381938,
        type: 3}
      propertyPath: m_LocalEulerAnglesHint.z
      value: 0
      objectReference: {fileID: 0}
    - target: {fileID: 9008052549779044370, guid: f12ebb1178d00a94982299201d381938,
        type: 3}
      propertyPath: _room
      value: Room3
      objectReference: {fileID: 0}
    m_RemovedComponents: []
  m_SourcePrefab: {fileID: 100100000, guid: f12ebb1178d00a94982299201d381938, type: 3}
--- !u!1001 &1934154227
PrefabInstance:
  m_ObjectHideFlags: 0
  serializedVersion: 2
  m_Modification:
    m_TransformParent: {fileID: 0}
    m_Modifications:
    - target: {fileID: 5327815979225569640, guid: 2315890ba7ee1f043a4a38a021477c69,
        type: 3}
      propertyPath: m_RootOrder
      value: 3
      objectReference: {fileID: 0}
    - target: {fileID: 5327815979225569640, guid: 2315890ba7ee1f043a4a38a021477c69,
        type: 3}
      propertyPath: m_LocalPosition.x
      value: 0
      objectReference: {fileID: 0}
    - target: {fileID: 5327815979225569640, guid: 2315890ba7ee1f043a4a38a021477c69,
        type: 3}
      propertyPath: m_LocalPosition.y
      value: 0
      objectReference: {fileID: 0}
    - target: {fileID: 5327815979225569640, guid: 2315890ba7ee1f043a4a38a021477c69,
        type: 3}
      propertyPath: m_LocalPosition.z
      value: 0
      objectReference: {fileID: 0}
    - target: {fileID: 5327815979225569640, guid: 2315890ba7ee1f043a4a38a021477c69,
        type: 3}
      propertyPath: m_LocalRotation.w
      value: 1
      objectReference: {fileID: 0}
    - target: {fileID: 5327815979225569640, guid: 2315890ba7ee1f043a4a38a021477c69,
        type: 3}
      propertyPath: m_LocalRotation.x
      value: 0
      objectReference: {fileID: 0}
    - target: {fileID: 5327815979225569640, guid: 2315890ba7ee1f043a4a38a021477c69,
        type: 3}
      propertyPath: m_LocalRotation.y
      value: 0
      objectReference: {fileID: 0}
    - target: {fileID: 5327815979225569640, guid: 2315890ba7ee1f043a4a38a021477c69,
        type: 3}
      propertyPath: m_LocalRotation.z
      value: 0
      objectReference: {fileID: 0}
    - target: {fileID: 5327815979225569640, guid: 2315890ba7ee1f043a4a38a021477c69,
        type: 3}
      propertyPath: m_LocalEulerAnglesHint.x
      value: 0
      objectReference: {fileID: 0}
    - target: {fileID: 5327815979225569640, guid: 2315890ba7ee1f043a4a38a021477c69,
        type: 3}
      propertyPath: m_LocalEulerAnglesHint.y
      value: 0
      objectReference: {fileID: 0}
    - target: {fileID: 5327815979225569640, guid: 2315890ba7ee1f043a4a38a021477c69,
        type: 3}
      propertyPath: m_LocalEulerAnglesHint.z
      value: 0
      objectReference: {fileID: 0}
    - target: {fileID: 5327815979225569641, guid: 2315890ba7ee1f043a4a38a021477c69,
        type: 3}
      propertyPath: _roomType
      value: 0
      objectReference: {fileID: 0}
    - target: {fileID: 5327815979225569641, guid: 2315890ba7ee1f043a4a38a021477c69,
        type: 3}
      propertyPath: _roomIndex
      value: 1
      objectReference: {fileID: 0}
    - target: {fileID: 5327815979225569643, guid: 2315890ba7ee1f043a4a38a021477c69,
        type: 3}
      propertyPath: m_Name
      value: Obstacles Layout Container
      objectReference: {fileID: 0}
    m_RemovedComponents: []
  m_SourcePrefab: {fileID: 100100000, guid: 2315890ba7ee1f043a4a38a021477c69, type: 3}
--- !u!1001 &1989622249
PrefabInstance:
  m_ObjectHideFlags: 0
  serializedVersion: 2
  m_Modification:
    m_TransformParent: {fileID: 0}
    m_Modifications:
    - target: {fileID: 1835075852657133238, guid: 987779995ca23ac48b8a7ab4dfd9081f,
        type: 3}
      propertyPath: _room
      value: Room1
      objectReference: {fileID: 0}
    - target: {fileID: 3334365082837243505, guid: 987779995ca23ac48b8a7ab4dfd9081f,
        type: 3}
      propertyPath: m_Name
      value: Door Down Variant
      objectReference: {fileID: 0}
    - target: {fileID: 3334365082837243507, guid: 987779995ca23ac48b8a7ab4dfd9081f,
        type: 3}
      propertyPath: m_RootOrder
      value: 0
      objectReference: {fileID: 0}
    - target: {fileID: 3334365082837243507, guid: 987779995ca23ac48b8a7ab4dfd9081f,
        type: 3}
      propertyPath: m_LocalPosition.x
      value: 0.6308764
      objectReference: {fileID: 0}
    - target: {fileID: 3334365082837243507, guid: 987779995ca23ac48b8a7ab4dfd9081f,
        type: 3}
      propertyPath: m_LocalPosition.y
      value: -1.2215312
      objectReference: {fileID: 0}
    - target: {fileID: 3334365082837243507, guid: 987779995ca23ac48b8a7ab4dfd9081f,
        type: 3}
      propertyPath: m_LocalPosition.z
      value: 0
      objectReference: {fileID: 0}
    - target: {fileID: 3334365082837243507, guid: 987779995ca23ac48b8a7ab4dfd9081f,
        type: 3}
      propertyPath: m_LocalRotation.w
      value: 1
      objectReference: {fileID: 0}
    - target: {fileID: 3334365082837243507, guid: 987779995ca23ac48b8a7ab4dfd9081f,
        type: 3}
      propertyPath: m_LocalRotation.x
      value: 0
      objectReference: {fileID: 0}
    - target: {fileID: 3334365082837243507, guid: 987779995ca23ac48b8a7ab4dfd9081f,
        type: 3}
      propertyPath: m_LocalRotation.y
      value: 0
      objectReference: {fileID: 0}
    - target: {fileID: 3334365082837243507, guid: 987779995ca23ac48b8a7ab4dfd9081f,
        type: 3}
      propertyPath: m_LocalRotation.z
      value: 0
      objectReference: {fileID: 0}
    - target: {fileID: 3334365082837243507, guid: 987779995ca23ac48b8a7ab4dfd9081f,
        type: 3}
      propertyPath: m_LocalEulerAnglesHint.x
      value: 0
      objectReference: {fileID: 0}
    - target: {fileID: 3334365082837243507, guid: 987779995ca23ac48b8a7ab4dfd9081f,
        type: 3}
      propertyPath: m_LocalEulerAnglesHint.y
      value: 0
      objectReference: {fileID: 0}
    - target: {fileID: 3334365082837243507, guid: 987779995ca23ac48b8a7ab4dfd9081f,
        type: 3}
      propertyPath: m_LocalEulerAnglesHint.z
      value: 0
      objectReference: {fileID: 0}
    m_RemovedComponents: []
  m_SourcePrefab: {fileID: 100100000, guid: 987779995ca23ac48b8a7ab4dfd9081f, type: 3}
