%YAML 1.1
%TAG !u! tag:unity3d.com,2011:
--- !u!1045 &1
EditorBuildSettings:
  m_ObjectHideFlags: 0
  serializedVersion: 2
  m_Scenes:
  - enabled: 1
    path: Assets/Scenes/MenuScene.unity
    guid: 7eafd5d99f5056049b7c5e89378a49a4
  - enabled: 1
    path: Assets/Scenes/Stage1/EntryRoom.unity
    guid: 2cda990e2423bbf4892e6590ba056729
  - enabled: 1
    path: Assets/Scenes/Stage1/Room1.unity
    guid: b796573f5fbfb824d9759aac320a4c0e
  - enabled: 1
    path: Assets/Scenes/Stage1/Room2.unity
    guid: 6846d094381310344a81b1d1f3da0516
  - enabled: 1
    path: Assets/Scenes/Stage1/Room3.unity
    guid: 5c7fc89f7bbfd074090620ac514163b9
  - enabled: 1
    path: Assets/Scenes/Stage1/Room4.unity
    guid: 7eba8613aa8ea234d997898a6bc15cef
  - enabled: 1
    path: Assets/Scenes/Stage1/Room5.unity
    guid: 1b914b66e26bbf246becb07bbf3f133f
  - enabled: 1
    path: Assets/Scenes/Stage1/Room6.unity
    guid: f73a82d7ea3ae2148a90dbe99c7f7391
  - enabled: 1
    path: Assets/Scenes/Stage1/Room7.unity
    guid: 05ee2f11c3702a247a9fc522dcaeb985
  - enabled: 1
    path: Assets/Scenes/Stage1/Room8.unity
    guid: 584dee0b2ee759f48858b6bab71ea63a
  - enabled: 1
    path: Assets/Scenes/Stage1/ExitRoom.unity
    guid: fcdb17b5f7b3a3345b10fd2da9c2f869
  - enabled: 1
    path: Assets/Scenes/EndScene.unity
    guid: b1327767e812e6b4ba0ad05bbb584a4a
  m_configObjects: {}
